// Jest Snapshot v1, https://goo.gl/fbAQLP

exports[`components/UI Chip snapshot 1`] = `
.c0 {
  display: -webkit-inline-box;
  display: -webkit-inline-flex;
  display: -ms-inline-flexbox;
  display: inline-flex;
  padding: 0.5rem 1rem;
  border: none;
  background-color: #e0e0e0;
  border-radius: 2rem;
  color: black;
  white-space: nowrap;
}

<div
  className="c0"
/>
`;
